{
	"version": 1,
	"collections": [
		{
			"id": "b676f5a4-15c0-45cf-8b40-ab720f6bc0d7",
			"uid": "0-b676f5a4-15c0-45cf-8b40-ab720f6bc0d7",
			"name": "Test",
			"description": null,
			"auth": null,
			"events": null,
			"variables": [
				{
					"key": "variable_key",
					"value": "",
					"disabled": false
				}
			],
			"order": [
				"3d10d55b-b5e3-4d0a-9ec5-72979986bf2f",
				"9405d76f-c675-47e8-9111-86ab139a39cc",
				"371f1b8c-7de9-4844-b8ab-c02f607030a3",
				"b0c50c81-cadf-42a6-903c-e6e8d4fc6873",
				"34baaeb1-c250-475b-807c-e616d05ddf96",
				"33eba038-c849-4eaa-a52a-6ae71b5af6c3",
				"0c54db9d-00f6-481f-935e-dad07b06f1e7",
				"100550c8-0865-49e7-b41d-2b92eb01d47d"
			],
			"folders_order": [],
			"protocolProfileBehavior": {},
			"createdAt": "2022-04-10T07:44:23.793Z",
			"folders": [],
			"requests": [
				{
					"id": "0c54db9d-00f6-481f-935e-dad07b06f1e7",
					"uid": "0-0c54db9d-00f6-481f-935e-dad07b06f1e7",
					"name": "del product",
					"url": "{{url}}/delproduct7",
					"description": "",
					"data": null,
					"dataOptions": null,
					"dataMode": null,
					"headerData": null,
					"method": "DELETE",
					"pathVariableData": [],
					"queryParams": [],
					"auth": null,
					"events": null,
					"folder": null,
					"responses_order": [],
					"currentHelper": null,
					"helperAttributes": null,
					"collectionId": "b676f5a4-15c0-45cf-8b40-ab720f6bc0d7",
					"pathVariables": {}
				},
				{
					"id": "100550c8-0865-49e7-b41d-2b92eb01d47d",
					"uid": "0-100550c8-0865-49e7-b41d-2b92eb01d47d",
					"name": "update product",
					"url": "{{url}}/updateProduct7",
					"description": "",
					"data": [],
					"dataOptions": {
						"raw": {
							"language": "json"
						}
					},
					"dataMode": "raw",
					"headerData": null,
					"method": "POST",
					"pathVariableData": [],
					"queryParams": [],
					"auth": null,
					"events": null,
					"folder": null,
					"responses_order": [],
					"currentHelper": null,
					"helperAttributes": null,
					"collectionId": "b676f5a4-15c0-45cf-8b40-ab720f6bc0d7",
					"rawModeData": "{\r\n    \"proname\":\"เสื้อยืดคอปก(ช)\",\r\n    \"num\" : 15,\r\n    \"price\" : 180\r\n}",
					"pathVariables": {}
				},
				{
					"id": "33eba038-c849-4eaa-a52a-6ae71b5af6c3",
					"uid": "0-33eba038-c849-4eaa-a52a-6ae71b5af6c3",
					"name": "new product",
					"url": "{{url}}/newproduct",
					"description": "",
					"data": [],
					"dataOptions": {
						"raw": {
							"language": "json"
						}
					},
					"dataMode": "raw",
					"headerData": null,
					"method": "POST",
					"pathVariableData": [],
					"queryParams": [],
					"auth": null,
					"events": null,
					"folder": null,
					"responses_order": [],
					"currentHelper": null,
					"helperAttributes": null,
					"collectionId": "b676f5a4-15c0-45cf-8b40-ab720f6bc0d7",
					"rawModeData": "{\r\n    \"proname\":\"เสื้อคอปก(ช)\",\r\n    \"num\" : 20,\r\n    \"size\" : \"xl\",\r\n    \"color\" : \"กรม\",\r\n    \"pattern\" : \"แขนสั้น\",\r\n    \"price\" : 200,\r\n    \"gender\" : \"ชาย\"\r\n}",
					"pathVariables": {}
				},
				{
					"id": "34baaeb1-c250-475b-807c-e616d05ddf96",
					"uid": "0-34baaeb1-c250-475b-807c-e616d05ddf96",
					"name": "order",
					"url": "{{url}}/order?statusnow=ยังไม่ชำระ",
					"description": "",
					"data": null,
					"dataOptions": null,
					"dataMode": null,
					"headerData": null,
					"method": "GET",
					"pathVariableData": [],
					"queryParams": [
						{
							"key": "statusnow",
							"value": "ยังไม่ชำระ",
							"equals": true,
							"description": "",
							"enabled": true
						}
					],
					"auth": null,
					"events": null,
					"folder": null,
					"responses_order": [],
					"currentHelper": null,
					"helperAttributes": null,
					"collectionId": "b676f5a4-15c0-45cf-8b40-ab720f6bc0d7",
					"pathVariables": {}
				},
				{
					"id": "371f1b8c-7de9-4844-b8ab-c02f607030a3",
					"uid": "0-371f1b8c-7de9-4844-b8ab-c02f607030a3",
					"name": "update order",
					"url": "{{url}}/updateorder4",
					"description": "",
					"data": [],
					"dataOptions": {
						"raw": {
							"language": "json"
						}
					},
					"dataMode": "raw",
					"headerData": null,
					"method": "POST",
					"pathVariableData": [],
					"queryParams": [],
					"auth": null,
					"events": [
						{
							"listen": "test",
							"script": {
								"id": "80c3c18a-131c-4ba0-be0d-60d3ffa3bbda",
								"exec": [
									"pm.test(\"Response time is less than 201ms\", function () {\r",
									"    pm.expect(pm.response.responseTime).to.be.below(201);\r",
									"});"
								],
								"type": "text/javascript"
							}
						}
					],
					"folder": null,
					"responses_order": [],
					"preRequestScript": null,
					"tests": "pm.test(\"Response time is less than 201ms\", function () {\r\n    pm.expect(pm.response.responseTime).to.be.below(201);\r\n});",
					"currentHelper": null,
					"helperAttributes": null,
					"collectionId": "b676f5a4-15c0-45cf-8b40-ab720f6bc0d7",
					"rawModeData": "{\r\n    \"status\":\"ร้านยืนยันยอดเงินแล้ว\",\r\n    \"address\": \"210 ถ.สุรวงศ์ สี่พระยา บางรัก กรุงเทพมหานคร 10500\"\r\n}",
					"pathVariables": {}
				},
				{
					"id": "3d10d55b-b5e3-4d0a-9ec5-72979986bf2f",
					"uid": "0-3d10d55b-b5e3-4d0a-9ec5-72979986bf2f",
					"name": "product",
					"url": "{{url}}/product?product_size=l",
					"description": null,
					"data": [],
					"dataOptions": {
						"raw": {
							"language": "json"
						}
					},
					"dataMode": "raw",
					"headerData": null,
					"method": "GET",
					"pathVariableData": [],
					"queryParams": [
						{
							"key": "product_size",
							"value": "l",
							"equals": true,
							"description": "",
							"enabled": true
						}
					],
					"auth": null,
					"events": [
						{
							"listen": "test",
							"script": {
								"id": "e3833c6e-f7c7-43f4-bf9f-889871ed9855",
								"exec": [
									"pm.test(\"Status code is 200\", function () {\r",
									"    pm.response.to.have.status(200);\r",
									"});\r",
									""
								],
								"type": "text/javascript"
							}
						}
					],
					"folder": null,
					"responses_order": [],
					"protocolProfileBehavior": {
						"disableBodyPruning": true
					},
					"preRequestScript": null,
					"tests": "pm.test(\"Status code is 200\", function () {\r\n    pm.response.to.have.status(200);\r\n});\r\n",
					"currentHelper": null,
					"helperAttributes": null,
					"collectionId": "b676f5a4-15c0-45cf-8b40-ab720f6bc0d7",
					"rawModeData": "",
					"pathVariables": {}
				},
				{
					"id": "9405d76f-c675-47e8-9111-86ab139a39cc",
					"uid": "0-9405d76f-c675-47e8-9111-86ab139a39cc",
					"name": "new order",
					"url": "{{url}}/neworder",
					"description": null,
					"data": [],
					"dataOptions": {
						"raw": {
							"language": "json"
						}
					},
					"dataMode": "raw",
					"headerData": null,
					"method": "POST",
					"pathVariableData": [],
					"queryParams": [],
					"auth": null,
					"events": null,
					"folder": null,
					"responses_order": [],
					"currentHelper": null,
					"helperAttributes": null,
					"collectionId": "b676f5a4-15c0-45cf-8b40-ab720f6bc0d7",
					"rawModeData": "{\r\n    \"ref\":\"ref10001\",\r\n    \"proid\":2,\r\n    \"proPrice\":150,\r\n    \"proNum\":1,\r\n    \"address\": \"169 Long Had Bangsaen Rd, Saen Suk, Chon Buri District, Chon Buri 20131\"\r\n}",
					"pathVariables": {}
				},
				{
					"id": "b0c50c81-cadf-42a6-903c-e6e8d4fc6873",
					"uid": "0-b0c50c81-cadf-42a6-903c-e6e8d4fc6873",
					"name": "del order",
					"url": "{{url}}/delorder2",
					"description": "",
					"data": null,
					"dataOptions": null,
					"dataMode": null,
					"headerData": null,
					"method": "DELETE",
					"pathVariableData": [],
					"queryParams": [],
					"auth": null,
					"events": null,
					"folder": null,
					"responses_order": [],
					"currentHelper": null,
					"helperAttributes": null,
					"collectionId": "b676f5a4-15c0-45cf-8b40-ab720f6bc0d7",
					"pathVariables": {}
				}
			]
		}
	],
	"environments": [
		{
			"id": "b0d8b44b-1a2a-4318-9c34-0603ef49309f",
			"name": "Test Environment",
			"values": [
				{
					"key": "url",
					"value": "http://127.0.0.1:8081",
					"enabled": true
				}
			]
		},
		{
			"id": "72b16ba8-90ed-46f3-9b76-903d02ad09a3",
			"name": "My Workspace - globals",
			"values": []
		}
	],
	"headerPresets": [],
	"globals": []
}